image: node:latest

stages:
    - test
    - deploy_prod

test:
    stage: test

deploy_prod:
    type: deploy
    stage: deploy_prod
    script:
        - npm install
        - npm install -g netlify-cli --unsafe-perm=true
        - npm run build
        - netlify deploy --site $NETLIFY_SITE_ID --auth $NETLIFY_AUTH_TOKEN --dir public/ --prod
    only:
        - prod